GLM
…
Example

## Parsed with column specification:
## cols(
##   id = col_integer(),
##   tx = col_integer(),
##   traffic.risk = col_double()
## )

Get this data at my github account: https://github.com/josh-jackson/Psych5067

example.data

## # A tibble: 280 x 3
##       id    tx traffic.risk
##    <int> <int>        <dbl>
##  1     1     1         1.86
##  2     2     1         1   
##  3     3     1         3.29
##  4     4     1         2   
##  5     5     1         2.43
##  6     6     1         3.29
##  7     7     0         1.17
##  8     8     0         2.43
##  9     9     0         3   
## 10    10     1         1.71
## # ... with 270 more rows
…
How do the means relate to our estimates within the regression equation?

ANOVA as regression

Nominal/categorical variables do not have any inherant numbers associated with them

Need to assign them numbers

What numbers you assign will impact the equation

ANOVA as regression

\[ Y_i = b_{0} + b_{1}X_i + e_i  \]

## # A tibble: 280 x 3
##       id    tx traffic.risk
##    <int> <int>        <dbl>
##  1     1     1         1.86
##  2     2     1         1   
##  3     3     1         3.29
##  4     4     1         2   
##  5     5     1         2.43
##  6     6     1         3.29
##  7     7     0         1.17
##  8     8     0         2.43
##  9     9     0         3   
## 10    10     1         1.71
## # ... with 270 more rows

library(dplyr)
example.data$tx.r <- as.factor(example.data$tx)
example.data$tx.r <- recode_factor(example.data$tx.r, "0" = "control", "1" = "treatment") 

example.data

## # A tibble: 280 x 4
##       id    tx traffic.risk tx.r     
##    <int> <int>        <dbl> <fct>    
##  1     1     1         1.86 treatment
##  2     2     1         1    treatment
##  3     3     1         3.29 treatment
##  4     4     1         2    treatment
##  5     5     1         2.43 treatment
##  6     6     1         3.29 treatment
##  7     7     0         1.17 control  
##  8     8     0         2.43 control  
##  9     9     0         3    control  
## 10    10     1         1.71 treatment
## # ... with 270 more rows
…
Infinite number of ways to code categorical variables, only a few meaningful ways

The R default is called “dummy coding”

Uses 0s and 1s to put numbers to categories

Changing the numbers changes…?

Effect coding

example.data$tx.effect <- dplyr::recode(example.data$tx.n, "0" = -1, "1" = 1) 

example.data

## # A tibble: 280 x 6
##       id    tx traffic.risk tx.r       tx.n tx.effect
##    <int> <int>        <dbl> <fct>     <dbl>     <dbl>
##  1     1     1         1.86 treatment     1         1
##  2     2     1         1    treatment     1         1
##  3     3     1         3.29 treatment     1         1
##  4     4     1         2    treatment     1         1
##  5     5     1         2.43 treatment     1         1
##  6     6     1         3.29 treatment     1         1
##  7     7     0         1.17 control       0        -1
##  8     8     0         2.43 control       0        -1
##  9     9     0         3    control       0        -1
## 10    10     1         1.71 treatment     1         1
## # ... with 270 more rows
…
example.data

## # A tibble: 280 x 6
##       id    tx traffic.risk tx.r       tx.n tx.effect
##    <int> <int>        <dbl> <fct>     <dbl>     <dbl>
##  1     1     1         1.86 treatment     1         1
##  2     2     1         1    treatment     1         1
##  3     3     1         3.29 treatment     1         1
##  4     4     1         2    treatment     1         1
##  5     5     1         2.43 treatment     1         1
##  6     6     1         3.29 treatment     1         1
##  7     7     0         1.17 control       0        -1
##  8     8     0         2.43 control       0        -1
##  9     9     0         3    control       0        -1
## 10    10     1         1.71 treatment     1         1
## # ... with 270 more rows
…
