Logistic Regression
…
For a one-unit change in X, holding other predictors constant, the odds that Y = 1 changes by \(e^{b_{1}}\)

e.g,. \(b_{1}\) = .4, \(e^{.4}\) = 1.49

for fitted values, need to use entire equation \[ \hat{Y} = e^{b_{0}+b_{1}X_{1}}\]

turn to probabilities by: odds/(1+odds)

example

# 0 = premature
mortality

## # A tibble: 300 x 3
##    Intelligence_Self Intelligence_Mate premature.d
##                <int>             <int>       <dbl>
##  1                22                19           1
##  2                22                18           1
##  3                21                21           1
##  4                22                17           1
##  5                19                18           1
##  6                19                20           0
##  7                16                18           1
##  8                15                11           0
##  9                16                21           1
## 10                19                22           1
## # ... with 290 more rows
…
