MLM
…
Level 2: \[ {\beta}_{0j} = \gamma_{00} + U_{0j}\]

Combined: \[ {Y}_{ij} = \gamma_{00} + U_{0j}  + \varepsilon_{ij} \]

ICC:

\[\frac{U_{0j}}{U_{0j}+ \varepsilon_{ij}}\]

% variation between vs within group (person) variance

Example

alcohol1

## # A tibble: 246 x 9
##       id   age   coa  male age_14 alcuse  peer  cpeer  ccoa
##    <dbl> <dbl> <dbl> <dbl>  <dbl>  <dbl> <dbl>  <dbl> <dbl>
##  1     1    14     1     0      0   1.73 1.26   0.247 0.549
##  2     1    15     1     0      1   2    1.26   0.247 0.549
##  3     1    16     1     0      2   2    1.26   0.247 0.549
##  4     2    14     1     1      0   0    0.894 -0.124 0.549
##  5     2    15     1     1      1   0    0.894 -0.124 0.549
##  6     2    16     1     1      2   1    0.894 -0.124 0.549
##  7     3    14     1     1      0   1    0.894 -0.124 0.549
##  8     3    15     1     1      1   2    0.894 -0.124 0.549
##  9     3    16     1     1      2   3.32 0.894 -0.124 0.549
## 10     4    14     1     1      0   0    1.79   0.771 0.549
## # … with 236 more rows
…
