Repeated measures & MLM
…
Level 2: \[ {\beta}_{0j} = \gamma_{00} + U_{0j}\]

Combined: \[ {Y}_{ij} = \gamma_{00} + U_{0j}  + \varepsilon_{ij} \]

ICC:

\[\frac{U_{0j}}{U_{0j}+ \varepsilon_{ij}}\]

% variation between vs within group (person) variance

Example

alcohol1

## # A tibble: 246 × 9
##       id   age   coa  male age_14   alcuse      peer      cpeer  ccoa
##    <int> <int> <int> <int>  <int>    <dbl>     <dbl>      <dbl> <dbl>
## 1      1    14     1     0      0 1.732051 1.2649111  0.2469111 0.549
## 2      1    15     1     0      1 2.000000 1.2649111  0.2469111 0.549
## 3      1    16     1     0      2 2.000000 1.2649111  0.2469111 0.549
## 4      2    14     1     1      0 0.000000 0.8944272 -0.1235728 0.549
## 5      2    15     1     1      1 0.000000 0.8944272 -0.1235728 0.549
## 6      2    16     1     1      2 1.000000 0.8944272 -0.1235728 0.549
## 7      3    14     1     1      0 1.000000 0.8944272 -0.1235728 0.549
## 8      3    15     1     1      1 2.000000 0.8944272 -0.1235728 0.549
## 9      3    16     1     1      2 3.316625 0.8944272 -0.1235728 0.549
## 10     4    14     1     1      0 0.000000 1.7888544  0.7708544 0.549
## # ... with 236 more rows
…
